…
Descriptive analysis
--------------------

``` r
season_summary <- df %>%
  group_by(player) %>%
  summarise(mean_score = mean(score, na.rm = T)) %>%
  arrange(desc(mean_score))
season_summary
```

    ## # A tibble: 28 x 2
    ##                 player mean_score
    ##                  <chr>      <dbl>
    ##  1          Imre Tamme   9.000000
    ##  2      Martin Uusküla   7.285714
    ##  3        Paul Meerits   7.213018
    ##  4        Gert Voomets   7.137255
    ##  5   Maksim Mitrofanov   6.946154
    ##  6          Olari Pärn   6.920245
    ##  7 Sten Mattias Oksaar   6.865079
    ##  8          Tarvi Suvi   6.800000
    ##  9         Tambet Kaal   6.794326
    ## 10       Jaan Vihalemm   6.777778
    ## # ... with 18 more rows

``` r
game_summary <- df %>%
  group_by(player, game) %>%
  summarise(mean_score = mean(score, na.rm = T))
game_summary
```

    ## # A tibble: 343 x 3
    ## # Groups:   player [?]
    ##          player  game mean_score
    ##           <chr> <int>      <dbl>
    ##  1 Gert Voomets     1   7.555556
    ##  2 Gert Voomets     2   7.222222
    ##  3 Gert Voomets     3   7.857143
    ##  4 Gert Voomets     6   7.111111
    ##  5 Gert Voomets     8   6.200000
    ##  6 Gert Voomets    10   7.111111
    ##  7 Gert Voomets    12   7.000000
    ##  8 Gert Voomets    13   6.600000
    ##  9 Gert Voomets    14   8.250000
    ## 10 Gert Voomets    17   5.000000
    ## # ... with 333 more rows
…
